<?xml version="1.0"?>
<svg xmlns="http://www.w3.org/2000/svg" xmlns:xlink="http://www.w3.org/1999/xlink" version="1.1" viewBox="0 0 231 231" enable-background="new 0 0 231 231" width="512px" height="512px" class=""><g><g>
    <rect width="181" x="50" y="164.5" height="33" data-original="#000000" class="active-path" data-old_color="#000000" fill="#FFFFFF"/>
    <rect width="181" x="50" y="99.5" height="33" data-original="#000000" class="active-path" data-old_color="#000000" fill="#FFFFFF"/>
    <rect width="181" x="50" y="32.5" height="33" data-original="#000000" class="active-path" data-old_color="#000000" fill="#FFFFFF"/>
    <rect width="33" y="165.5" height="33" data-original="#000000" class="active-path" data-old_color="#000000" fill="#FFFFFF"/>
    <rect width="33" y="99.5" height="33" data-original="#000000" class="active-path" data-old_color="#000000" fill="#FFFFFF"/>
    <rect width="33" y="32.5" height="33" data-original="#000000" class="active-path" data-old_color="#000000" fill="#FFFFFF"/>
  </g></g> </svg>
